http://duodaa.com/?qa=371
http://duodaa.com/?qa=372
http://duodaa.com/?qa=373
http://duodaa.com/?qa=374
http://duodaa.com/?qa=375
http://duodaa.com/?qa=376
http://duodaa.com/?qa=377
http://duodaa.com/?qa=378
http://duodaa.com/?qa=379
http://duodaa.com/?qa=380
http://duodaa.com/?qa=381
http://duodaa.com/?qa=382
http://duodaa.com/?qa=383
http://duodaa.com/?qa=384
http://duodaa.com/?qa=385
http://duodaa.com/?qa=386
http://duodaa.com/?qa=387
http://duodaa.com/?qa=388
http://duodaa.com/?qa=389
http://duodaa.com/?qa=390
http://duodaa.com/?qa=391
http://duodaa.com/?qa=392
http://duodaa.com/?qa=393
http://duodaa.com/?qa=394
http://duodaa.com/?qa=395
http://duodaa.com/?qa=396
http://duodaa.com/?qa=397
http://duodaa.com/?qa=398
http://duodaa.com/?qa=399
http://duodaa.com/?qa=400
http://duodaa.com/?qa=401
http://duodaa.com/?qa=402
http://duodaa.com/?qa=403
http://duodaa.com/?qa=404
http://duodaa.com/?qa=405
http://duodaa.com/?qa=406
http://duodaa.com/?qa=407
http://duodaa.com/?qa=408
http://duodaa.com/?qa=409
http://duodaa.com/?qa=410
http://duodaa.com/?qa=411
http://duodaa.com/?qa=412
http://duodaa.com/?qa=413
http://duodaa.com/?qa=414
http://duodaa.com/?qa=415
http://duodaa.com/?qa=416
http://duodaa.com/?qa=417
http://duodaa.com/?qa=418
http://duodaa.com/?qa=419
http://duodaa.com/?qa=420
http://duodaa.com/?qa=421
http://duodaa.com/?qa=422
http://duodaa.com/?qa=423
http://duodaa.com/?qa=424
http://duodaa.com/?qa=425
http://duodaa.com/?qa=426
http://duodaa.com/?qa=427
http://duodaa.com/?qa=428
http://duodaa.com/?qa=429
http://duodaa.com/?qa=430
http://duodaa.com/?qa=431
http://duodaa.com/?qa=432
http://duodaa.com/?qa=433
http://duodaa.com/?qa=434
http://duodaa.com/?qa=435
http://duodaa.com/?qa=436
http://duodaa.com/?qa=437
http://duodaa.com/?qa=438
http://duodaa.com/?qa=439
http://duodaa.com/?qa=440
http://duodaa.com/?qa=441
http://duodaa.com/?qa=442
http://duodaa.com/?qa=443
http://duodaa.com/?qa=444
http://duodaa.com/?qa=445
http://duodaa.com/?qa=446
http://duodaa.com/?qa=447
http://duodaa.com/?qa=448
http://duodaa.com/?qa=449
http://duodaa.com/?qa=450
http://duodaa.com/?qa=451
http://duodaa.com/?qa=452
http://duodaa.com/?qa=453
http://duodaa.com/?qa=454
http://duodaa.com/?qa=455
http://duodaa.com/?qa=456
http://duodaa.com/?qa=457
http://duodaa.com/?qa=458
http://duodaa.com/?qa=459
http://duodaa.com/?qa=460
http://duodaa.com/?qa=461
http://duodaa.com/?qa=462
http://duodaa.com/?qa=463
http://duodaa.com/?qa=464
http://duodaa.com/?qa=465
http://duodaa.com/?qa=466
http://duodaa.com/?qa=467
http://duodaa.com/?qa=468
http://duodaa.com/?qa=469
http://duodaa.com/?qa=470
http://duodaa.com/?qa=471
http://duodaa.com/?qa=472
http://duodaa.com/?qa=473
http://duodaa.com/?qa=474
http://duodaa.com/?qa=475
http://duodaa.com/?qa=476
http://duodaa.com/?qa=477
http://duodaa.com/?qa=478
http://duodaa.com/?qa=479
http://duodaa.com/?qa=480
http://duodaa.com/?qa=481
http://duodaa.com/?qa=482
http://duodaa.com/?qa=483
http://duodaa.com/?qa=484
http://duodaa.com/?qa=485
http://duodaa.com/?qa=486
http://duodaa.com/?qa=487
http://duodaa.com/?qa=488
http://duodaa.com/?qa=489
http://duodaa.com/?qa=490
http://duodaa.com/?qa=491
http://duodaa.com/?qa=492
http://duodaa.com/?qa=493
http://duodaa.com/?qa=494
http://duodaa.com/?qa=495
http://duodaa.com/?qa=496
http://duodaa.com/?qa=497
http://duodaa.com/?qa=498
http://duodaa.com/?qa=499
http://duodaa.com/?qa=500
http://duodaa.com/?qa=501
http://duodaa.com/?qa=502
http://duodaa.com/?qa=503
http://duodaa.com/?qa=504
http://duodaa.com/?qa=505
http://duodaa.com/?qa=506
http://duodaa.com/?qa=507
http://duodaa.com/?qa=508
http://duodaa.com/?qa=509
http://duodaa.com/?qa=510
http://duodaa.com/?qa=511
http://duodaa.com/?qa=512
http://duodaa.com/?qa=513
http://duodaa.com/?qa=514
http://duodaa.com/?qa=515
http://duodaa.com/?qa=516
http://duodaa.com/?qa=517
http://duodaa.com/?qa=518
http://duodaa.com/?qa=519
http://duodaa.com/?qa=520
http://duodaa.com/?qa=521
http://duodaa.com/?qa=522
http://duodaa.com/?qa=523
http://duodaa.com/?qa=524
http://duodaa.com/?qa=525
http://duodaa.com/?qa=526
http://duodaa.com/?qa=527
http://duodaa.com/?qa=528
http://duodaa.com/?qa=529
http://duodaa.com/?qa=530
http://duodaa.com/?qa=531
http://duodaa.com/?qa=532
http://duodaa.com/?qa=533
http://duodaa.com/?qa=534
http://duodaa.com/?qa=535
http://duodaa.com/?qa=536
http://duodaa.com/?qa=537
http://duodaa.com/?qa=538
http://duodaa.com/?qa=539
http://duodaa.com/?qa=540
http://duodaa.com/?qa=541
http://duodaa.com/?qa=542
http://duodaa.com/?qa=543
http://duodaa.com/?qa=544
http://duodaa.com/?qa=545
http://duodaa.com/?qa=546
http://duodaa.com/?qa=547
http://duodaa.com/?qa=548
http://duodaa.com/?qa=549
http://duodaa.com/?qa=550
http://duodaa.com/?qa=551
http://duodaa.com/?qa=552
http://duodaa.com/?qa=553
http://duodaa.com/?qa=554
http://duodaa.com/?qa=555
http://duodaa.com/?qa=556
http://duodaa.com/?qa=557
http://duodaa.com/?qa=558
http://duodaa.com/?qa=559
http://duodaa.com/?qa=560
http://duodaa.com/?qa=561
http://duodaa.com/?qa=562
http://duodaa.com/?qa=563
http://duodaa.com/?qa=564
http://duodaa.com/?qa=565
http://duodaa.com/?qa=566
http://duodaa.com/?qa=567
http://duodaa.com/?qa=568
http://duodaa.com/?qa=569
http://duodaa.com/?qa=570
http://duodaa.com/?qa=571
http://duodaa.com/?qa=572
http://duodaa.com/?qa=573
http://duodaa.com/?qa=574
http://duodaa.com/?qa=575
http://duodaa.com/?qa=576
http://duodaa.com/?qa=577
http://duodaa.com/?qa=578
http://duodaa.com/?qa=579
http://duodaa.com/?qa=580
http://duodaa.com/?qa=581
http://duodaa.com/?qa=582
http://duodaa.com/?qa=583
http://duodaa.com/?qa=584
http://duodaa.com/?qa=585
http://duodaa.com/?qa=586
http://duodaa.com/?qa=587
http://duodaa.com/?qa=588
http://duodaa.com/?qa=589
http://duodaa.com/?qa=590
http://duodaa.com/?qa=591
http://duodaa.com/?qa=592
http://duodaa.com/?qa=593
http://duodaa.com/?qa=594
http://duodaa.com/?qa=595
http://duodaa.com/?qa=596
http://duodaa.com/?qa=597
http://duodaa.com/?qa=598
http://duodaa.com/?qa=599
http://duodaa.com/?qa=600
http://duodaa.com/?qa=601
http://duodaa.com/?qa=602
http://duodaa.com/?qa=603
http://duodaa.com/?qa=604
http://duodaa.com/?qa=605
http://duodaa.com/?qa=606
http://duodaa.com/?qa=607
http://duodaa.com/?qa=608
http://duodaa.com/?qa=609
http://duodaa.com/?qa=610
http://duodaa.com/?qa=611
http://duodaa.com/?qa=612
http://duodaa.com/?qa=613
http://duodaa.com/?qa=614
http://duodaa.com/?qa=615
http://duodaa.com/?qa=616
http://duodaa.com/?qa=617
http://duodaa.com/?qa=618
http://duodaa.com/?qa=619
http://duodaa.com/?qa=620
http://duodaa.com/?qa=621
http://duodaa.com/?qa=622
http://duodaa.com/?qa=623
http://duodaa.com/?qa=624
http://duodaa.com/?qa=625
http://duodaa.com/?qa=626
http://duodaa.com/?qa=627
http://duodaa.com/?qa=628
http://duodaa.com/?qa=629
http://duodaa.com/?qa=630
http://duodaa.com/?qa=631
http://duodaa.com/?qa=632
http://duodaa.com/?qa=633
http://duodaa.com/?qa=634
http://duodaa.com/?qa=635
http://duodaa.com/?qa=636
http://duodaa.com/?qa=637
http://duodaa.com/?qa=638
http://duodaa.com/?qa=639
http://duodaa.com/?qa=640
http://duodaa.com/?qa=641
http://duodaa.com/?qa=642
http://duodaa.com/?qa=643
http://duodaa.com/?qa=644
http://duodaa.com/?qa=645
http://duodaa.com/?qa=646
http://duodaa.com/?qa=647
http://duodaa.com/?qa=648
http://duodaa.com/?qa=649
http://duodaa.com/?qa=650
http://duodaa.com/?qa=651
http://duodaa.com/?qa=652
http://duodaa.com/?qa=653
http://duodaa.com/?qa=654
http://duodaa.com/?qa=655
http://duodaa.com/?qa=656
http://duodaa.com/?qa=657
http://duodaa.com/?qa=658
http://duodaa.com/?qa=659
http://duodaa.com/?qa=660
http://duodaa.com/?qa=661
http://duodaa.com/?qa=662
http://duodaa.com/?qa=663
http://duodaa.com/?qa=664
http://duodaa.com/?qa=665
http://duodaa.com/?qa=666
http://duodaa.com/?qa=667
http://duodaa.com/?qa=668
http://duodaa.com/?qa=669
http://duodaa.com/?qa=670
http://duodaa.com/?qa=671
http://duodaa.com/?qa=672
http://duodaa.com/?qa=673
http://duodaa.com/?qa=674
http://duodaa.com/?qa=675
http://duodaa.com/?qa=676
http://duodaa.com/?qa=677
http://duodaa.com/?qa=678
http://duodaa.com/?qa=679
http://duodaa.com/?qa=680
http://duodaa.com/?qa=681
http://duodaa.com/?qa=682
http://duodaa.com/?qa=683
http://duodaa.com/?qa=684
http://duodaa.com/?qa=685
http://duodaa.com/?qa=686
http://duodaa.com/?qa=687
http://duodaa.com/?qa=688
http://duodaa.com/?qa=689
http://duodaa.com/?qa=690
http://duodaa.com/?qa=691
http://duodaa.com/?qa=692
http://duodaa.com/?qa=693
http://duodaa.com/?qa=694
http://duodaa.com/?qa=695
http://duodaa.com/?qa=696
http://duodaa.com/?qa=697
http://duodaa.com/?qa=698
http://duodaa.com/?qa=699
http://duodaa.com/?qa=700
http://duodaa.com/?qa=701
http://duodaa.com/?qa=702
http://duodaa.com/?qa=703
http://duodaa.com/?qa=704
http://duodaa.com/?qa=705
http://duodaa.com/?qa=706
http://duodaa.com/?qa=707
http://duodaa.com/?qa=708
http://duodaa.com/?qa=709
http://duodaa.com/?qa=710
http://duodaa.com/?qa=711
http://duodaa.com/?qa=712
http://duodaa.com/?qa=713
http://duodaa.com/?qa=714
http://duodaa.com/?qa=715
http://duodaa.com/?qa=716
http://duodaa.com/?qa=717
http://duodaa.com/?qa=718
http://duodaa.com/?qa=719
http://duodaa.com/?qa=720
http://duodaa.com/?qa=721
http://duodaa.com/?qa=722
http://duodaa.com/?qa=723
http://duodaa.com/?qa=724
http://duodaa.com/?qa=725
http://duodaa.com/?qa=726
http://duodaa.com/?qa=727
http://duodaa.com/?qa=728
http://duodaa.com/?qa=729
http://duodaa.com/?qa=730
http://duodaa.com/?qa=731
http://duodaa.com/?qa=732
http://duodaa.com/?qa=733
http://duodaa.com/?qa=734
http://duodaa.com/?qa=735
http://duodaa.com/?qa=736
http://duodaa.com/?qa=737
http://duodaa.com/?qa=738
http://duodaa.com/?qa=739
http://duodaa.com/?qa=740
http://duodaa.com/?qa=741
http://duodaa.com/?qa=742
http://duodaa.com/?qa=743
http://duodaa.com/?qa=744
http://duodaa.com/?qa=745
http://duodaa.com/?qa=746
http://duodaa.com/?qa=747
http://duodaa.com/?qa=748
http://duodaa.com/?qa=749
http://duodaa.com/?qa=750
http://duodaa.com/?qa=751
http://duodaa.com/?qa=752
http://duodaa.com/?qa=753
http://duodaa.com/?qa=754
http://duodaa.com/?qa=755
http://duodaa.com/?qa=756
http://duodaa.com/?qa=757
http://duodaa.com/?qa=758
http://duodaa.com/?qa=759
http://duodaa.com/?qa=760
http://duodaa.com/?qa=761
http://duodaa.com/?qa=762
http://duodaa.com/?qa=763
http://duodaa.com/?qa=764
http://duodaa.com/?qa=765
http://duodaa.com/?qa=766
http://duodaa.com/?qa=767
http://duodaa.com/?qa=768
http://duodaa.com/?qa=769
http://duodaa.com/?qa=770
http://duodaa.com/?qa=771
http://duodaa.com/?qa=772
http://duodaa.com/?qa=773
http://duodaa.com/?qa=774
http://duodaa.com/?qa=775
http://duodaa.com/?qa=776
http://duodaa.com/?qa=777
http://duodaa.com/?qa=778
http://duodaa.com/?qa=779
http://duodaa.com/?qa=780
http://duodaa.com/?qa=781
http://duodaa.com/?qa=782
http://duodaa.com/?qa=783
http://duodaa.com/?qa=784
http://duodaa.com/?qa=785
http://duodaa.com/?qa=786
http://duodaa.com/?qa=787
http://duodaa.com/?qa=788
http://duodaa.com/?qa=789
http://duodaa.com/?qa=790
http://duodaa.com/?qa=791
http://duodaa.com/?qa=792
http://duodaa.com/?qa=793
http://duodaa.com/?qa=794
http://duodaa.com/?qa=795
http://duodaa.com/?qa=796
http://duodaa.com/?qa=797
http://duodaa.com/?qa=798
http://duodaa.com/?qa=799
http://duodaa.com/?qa=800
http://duodaa.com/?qa=801
http://duodaa.com/?qa=802
http://duodaa.com/?qa=803
http://duodaa.com/?qa=804
http://duodaa.com/?qa=805
http://duodaa.com/?qa=806
http://duodaa.com/?qa=807
http://duodaa.com/?qa=808
http://duodaa.com/?qa=809
http://duodaa.com/?qa=810
http://duodaa.com/?qa=811
http://duodaa.com/?qa=812
http://duodaa.com/?qa=813
http://duodaa.com/?qa=814
http://duodaa.com/?qa=815
http://duodaa.com/?qa=816
http://duodaa.com/?qa=817
http://duodaa.com/?qa=818
http://duodaa.com/?qa=819
http://duodaa.com/?qa=820
http://duodaa.com/?qa=821
http://duodaa.com/?qa=822
http://duodaa.com/?qa=823
http://duodaa.com/?qa=824
http://duodaa.com/?qa=825
http://duodaa.com/?qa=826
http://duodaa.com/?qa=827
http://duodaa.com/?qa=828
http://duodaa.com/?qa=829
http://duodaa.com/?qa=830
http://duodaa.com/?qa=831
http://duodaa.com/?qa=832
http://duodaa.com/?qa=833
http://duodaa.com/?qa=834
http://duodaa.com/?qa=835
http://duodaa.com/?qa=836
http://duodaa.com/?qa=837
http://duodaa.com/?qa=838
http://duodaa.com/?qa=839
http://duodaa.com/?qa=840
http://duodaa.com/?qa=841
http://duodaa.com/?qa=842
http://duodaa.com/?qa=843
http://duodaa.com/?qa=844
http://duodaa.com/?qa=845
http://duodaa.com/?qa=846
http://duodaa.com/?qa=847
http://duodaa.com/?qa=848
http://duodaa.com/?qa=849
http://duodaa.com/?qa=850
http://duodaa.com/?qa=851
http://duodaa.com/?qa=852
http://duodaa.com/?qa=853
http://duodaa.com/?qa=854
http://duodaa.com/?qa=855
http://duodaa.com/?qa=856
http://duodaa.com/?qa=857
http://duodaa.com/?qa=858
http://duodaa.com/?qa=859
http://duodaa.com/?qa=860
http://duodaa.com/?qa=861
http://duodaa.com/?qa=862
http://duodaa.com/?qa=863
http://duodaa.com/?qa=864
http://duodaa.com/?qa=865
http://duodaa.com/?qa=866
http://duodaa.com/?qa=867
http://duodaa.com/?qa=868
http://duodaa.com/?qa=869
http://duodaa.com/?qa=870
http://duodaa.com/?qa=871
http://duodaa.com/?qa=872
http://duodaa.com/?qa=873
http://duodaa.com/?qa=874
http://duodaa.com/?qa=875
http://duodaa.com/?qa=876
http://duodaa.com/?qa=877
http://duodaa.com/?qa=878
http://duodaa.com/?qa=879
http://duodaa.com/?qa=880
http://duodaa.com/?qa=881
http://duodaa.com/?qa=882
http://duodaa.com/?qa=883
http://duodaa.com/?qa=884
http://duodaa.com/?qa=885
http://duodaa.com/?qa=886
http://duodaa.com/?qa=887
http://duodaa.com/?qa=888
http://duodaa.com/?qa=889
http://duodaa.com/?qa=890
http://duodaa.com/?qa=891
http://duodaa.com/?qa=892
http://duodaa.com/?qa=893
http://duodaa.com/?qa=894
http://duodaa.com/?qa=895
http://duodaa.com/?qa=896
http://duodaa.com/?qa=897
http://duodaa.com/?qa=898
http://duodaa.com/?qa=899
http://duodaa.com/?qa=900
http://duodaa.com/?qa=901
http://duodaa.com/?qa=902
http://duodaa.com/?qa=903
http://duodaa.com/?qa=904
http://duodaa.com/?qa=905
http://duodaa.com/?qa=906
http://duodaa.com/?qa=907
http://duodaa.com/?qa=908
http://duodaa.com/?qa=909
http://duodaa.com/?qa=910
http://duodaa.com/?qa=911
http://duodaa.com/?qa=912
http://duodaa.com/?qa=913
http://duodaa.com/?qa=914
http://duodaa.com/?qa=915
http://duodaa.com/?qa=916
http://duodaa.com/?qa=917
http://duodaa.com/?qa=918
http://duodaa.com/?qa=919
http://duodaa.com/?qa=920
http://duodaa.com/?qa=921
http://duodaa.com/?qa=922
http://duodaa.com/?qa=923
http://duodaa.com/?qa=924
http://duodaa.com/?qa=925
http://duodaa.com/?qa=926
http://duodaa.com/?qa=927
http://duodaa.com/?qa=928
http://duodaa.com/?qa=929
http://duodaa.com/?qa=930
http://duodaa.com/?qa=931
http://duodaa.com/?qa=932
http://duodaa.com/?qa=933
http://duodaa.com/?qa=934
http://duodaa.com/?qa=935
http://duodaa.com/?qa=936
http://duodaa.com/?qa=937
http://duodaa.com/?qa=938
http://duodaa.com/?qa=939
http://duodaa.com/?qa=940
http://duodaa.com/?qa=941
http://duodaa.com/?qa=942
http://duodaa.com/?qa=943
http://duodaa.com/?qa=944
http://duodaa.com/?qa=945
http://duodaa.com/?qa=946
http://duodaa.com/?qa=947
http://duodaa.com/?qa=948
http://duodaa.com/?qa=949
http://duodaa.com/?qa=950
http://duodaa.com/?qa=951
http://duodaa.com/?qa=952
http://duodaa.com/?qa=953
http://duodaa.com/?qa=954
http://duodaa.com/?qa=955
http://duodaa.com/?qa=956
http://duodaa.com/?qa=957
http://duodaa.com/?qa=958
http://duodaa.com/?qa=959
http://duodaa.com/?qa=960
http://duodaa.com/?qa=961
http://duodaa.com/?qa=962
http://duodaa.com/?qa=963
http://duodaa.com/?qa=964
http://duodaa.com/?qa=965
http://duodaa.com/?qa=966
http://duodaa.com/?qa=967
http://duodaa.com/?qa=968
http://duodaa.com/?qa=969
http://duodaa.com/?qa=970
http://duodaa.com/?qa=971
http://duodaa.com/?qa=972
http://duodaa.com/?qa=973
http://duodaa.com/?qa=974
http://duodaa.com/?qa=975
http://duodaa.com/?qa=976
http://duodaa.com/?qa=977
http://duodaa.com/?qa=978
http://duodaa.com/?qa=979
http://duodaa.com/?qa=980
http://duodaa.com/?qa=981
http://duodaa.com/?qa=982
http://duodaa.com/?qa=983
http://duodaa.com/?qa=984
http://duodaa.com/?qa=985
http://duodaa.com/?qa=986
http://duodaa.com/?qa=987
http://duodaa.com/?qa=988
http://duodaa.com/?qa=989
http://duodaa.com/?qa=990
http://duodaa.com/?qa=991
http://duodaa.com/?qa=992
http://duodaa.com/?qa=993
http://duodaa.com/?qa=994
http://duodaa.com/?qa=995
http://duodaa.com/?qa=996
http://duodaa.com/?qa=997
http://duodaa.com/?qa=998
http://duodaa.com/?qa=999
http://duodaa.com/?qa=1000
http://duodaa.com/?qa=1001
http://duodaa.com/?qa=1002
http://duodaa.com/?qa=1003
http://duodaa.com/?qa=1004
http://duodaa.com/?qa=1005
http://duodaa.com/?qa=1006
http://duodaa.com/?qa=1007
http://duodaa.com/?qa=1008
http://duodaa.com/?qa=1009
http://duodaa.com/?qa=1010
http://duodaa.com/?qa=1011
http://duodaa.com/?qa=1012
http://duodaa.com/?qa=1013
http://duodaa.com/?qa=1014
http://duodaa.com/?qa=1015
http://duodaa.com/?qa=1016
http://duodaa.com/?qa=1017
http://duodaa.com/?qa=1018
http://duodaa.com/?qa=1019
http://duodaa.com/?qa=1020
http://duodaa.com/?qa=1021
http://duodaa.com/?qa=1022
http://duodaa.com/?qa=1023
http://duodaa.com/?qa=1024
http://duodaa.com/?qa=1025
http://duodaa.com/?qa=1026
http://duodaa.com/?qa=1027
http://duodaa.com/?qa=1028
http://duodaa.com/?qa=1029
http://duodaa.com/?qa=1030
http://duodaa.com/?qa=1031
http://duodaa.com/?qa=1032
http://duodaa.com/?qa=1033
http://duodaa.com/?qa=1034
http://duodaa.com/?qa=1035
http://duodaa.com/?qa=1036
http://duodaa.com/?qa=1037
http://duodaa.com/?qa=1038
http://duodaa.com/?qa=1039
http://duodaa.com/?qa=1040
http://duodaa.com/?qa=1041
http://duodaa.com/?qa=1042
http://duodaa.com/?qa=1043
http://duodaa.com/?qa=1044
http://duodaa.com/?qa=1045
http://duodaa.com/?qa=1046
http://duodaa.com/?qa=1047
http://duodaa.com/?qa=1048
http://duodaa.com/?qa=1049
http://duodaa.com/?qa=1050
http://duodaa.com/?qa=1051
http://duodaa.com/?qa=1052
http://duodaa.com/?qa=1053
http://duodaa.com/?qa=1054
http://duodaa.com/?qa=1055
http://duodaa.com/?qa=1056
http://duodaa.com/?qa=1057
http://duodaa.com/?qa=1058
http://duodaa.com/?qa=1059
http://duodaa.com/?qa=1060
http://duodaa.com/?qa=1061
http://duodaa.com/?qa=1062
http://duodaa.com/?qa=1063
http://duodaa.com/?qa=1064
http://duodaa.com/?qa=1065
http://duodaa.com/?qa=1066
http://duodaa.com/?qa=1067
http://duodaa.com/?qa=1068
http://duodaa.com/?qa=1069
http://duodaa.com/?qa=1070
http://duodaa.com/?qa=1071
http://duodaa.com/?qa=1072
http://duodaa.com/?qa=1073
http://duodaa.com/?qa=1074
http://duodaa.com/?qa=1075
http://duodaa.com/?qa=1076
http://duodaa.com/?qa=1077
http://duodaa.com/?qa=1078
http://duodaa.com/?qa=1079
http://duodaa.com/?qa=1080
http://duodaa.com/?qa=1081
http://duodaa.com/?qa=1082
http://duodaa.com/?qa=1083
http://duodaa.com/?qa=1084
http://duodaa.com/?qa=1085
http://duodaa.com/?qa=1086
http://duodaa.com/?qa=1087
http://duodaa.com/?qa=1088
http://duodaa.com/?qa=1089
http://duodaa.com/?qa=1090
http://duodaa.com/?qa=1091
http://duodaa.com/?qa=1092
http://duodaa.com/?qa=1093
http://duodaa.com/?qa=1094
http://duodaa.com/?qa=1095
http://duodaa.com/?qa=1096
http://duodaa.com/?qa=1097
http://duodaa.com/?qa=1098
http://duodaa.com/?qa=1099
http://duodaa.com/?qa=1100
http://duodaa.com/?qa=1101
http://duodaa.com/?qa=1102
http://duodaa.com/?qa=1103
http://duodaa.com/?qa=1104
http://duodaa.com/?qa=1105
http://duodaa.com/?qa=1106
http://duodaa.com/?qa=1107
http://duodaa.com/?qa=1108
http://duodaa.com/?qa=1109
http://duodaa.com/?qa=1110
http://duodaa.com/?qa=1111
http://duodaa.com/?qa=1112
http://duodaa.com/?qa=1113
http://duodaa.com/?qa=1114
http://duodaa.com/?qa=1115
http://duodaa.com/?qa=1116
http://duodaa.com/?qa=1117
http://duodaa.com/?qa=1118
http://duodaa.com/?qa=1119
http://duodaa.com/?qa=1120
http://duodaa.com/?qa=1121
http://duodaa.com/?qa=1122
http://duodaa.com/?qa=1123
http://duodaa.com/?qa=1124
http://duodaa.com/?qa=1125
http://duodaa.com/?qa=1126
http://duodaa.com/?qa=1127
http://duodaa.com/?qa=1128
http://duodaa.com/?qa=1129
http://duodaa.com/?qa=1130
http://duodaa.com/?qa=1131
http://duodaa.com/?qa=1132
http://duodaa.com/?qa=1133
http://duodaa.com/?qa=1134
http://duodaa.com/?qa=1135
http://duodaa.com/?qa=1136
http://duodaa.com/?qa=1137
http://duodaa.com/?qa=1138
http://duodaa.com/?qa=1139
http://duodaa.com/?qa=1140
http://duodaa.com/?qa=1141
http://duodaa.com/?qa=1142
http://duodaa.com/?qa=1143
http://duodaa.com/?qa=1144
http://duodaa.com/?qa=1145
http://duodaa.com/?qa=1146
http://duodaa.com/?qa=1147
http://duodaa.com/?qa=1148
http://duodaa.com/?qa=1149
http://duodaa.com/?qa=1150
http://duodaa.com/?qa=1151
http://duodaa.com/?qa=1152
http://duodaa.com/?qa=1153
http://duodaa.com/?qa=1154
http://duodaa.com/?qa=1155
http://duodaa.com/?qa=1156
http://duodaa.com/?qa=1157
http://duodaa.com/?qa=1158
http://duodaa.com/?qa=1159
http://duodaa.com/?qa=1160
http://duodaa.com/?qa=1161
http://duodaa.com/?qa=1162
http://duodaa.com/?qa=1163
http://duodaa.com/?qa=1164
http://duodaa.com/?qa=1165
http://duodaa.com/?qa=1166
http://duodaa.com/?qa=1167
http://duodaa.com/?qa=1168
http://duodaa.com/?qa=1169
http://duodaa.com/?qa=1170
http://duodaa.com/?qa=1171
http://duodaa.com/?qa=1172
http://duodaa.com/?qa=1173
http://duodaa.com/?qa=1174
http://duodaa.com/?qa=1175
http://duodaa.com/?qa=1176
http://duodaa.com/?qa=1177
http://duodaa.com/?qa=1178
http://duodaa.com/?qa=1179
http://duodaa.com/?qa=1180
http://duodaa.com/?qa=1181
http://duodaa.com/?qa=1182
http://duodaa.com/?qa=1183
http://duodaa.com/?qa=1184
http://duodaa.com/?qa=1185
http://duodaa.com/?qa=1186
http://duodaa.com/?qa=1187
http://duodaa.com/?qa=1188
http://duodaa.com/?qa=1189
http://duodaa.com/?qa=1190
http://duodaa.com/?qa=1191
http://duodaa.com/?qa=1192
http://duodaa.com/?qa=1193
http://duodaa.com/?qa=1194
http://duodaa.com/?qa=1195
http://duodaa.com/?qa=1196
http://duodaa.com/?qa=1197
http://duodaa.com/?qa=1198
http://duodaa.com/?qa=1199
http://duodaa.com/?qa=1200
http://duodaa.com/?qa=1201
http://duodaa.com/?qa=1202
http://duodaa.com/?qa=1203
http://duodaa.com/?qa=1204
http://duodaa.com/?qa=1205
http://duodaa.com/?qa=1206
http://duodaa.com/?qa=1207
http://duodaa.com/?qa=1208
http://duodaa.com/?qa=1209
http://duodaa.com/?qa=1210
http://duodaa.com/?qa=1211
http://duodaa.com/?qa=1212
http://duodaa.com/?qa=1213
http://duodaa.com/?qa=1214
http://duodaa.com/?qa=1215
http://duodaa.com/?qa=1216
http://duodaa.com/?qa=1217
http://duodaa.com/?qa=1218
http://duodaa.com/?qa=1219
http://duodaa.com/?qa=1220
http://duodaa.com/?qa=1221
http://duodaa.com/?qa=1222
http://duodaa.com/?qa=1223
http://duodaa.com/?qa=1224
http://duodaa.com/?qa=1225
http://duodaa.com/?qa=1226
http://duodaa.com/?qa=1227
http://duodaa.com/?qa=1228
http://duodaa.com/?qa=1229
http://duodaa.com/?qa=1230
http://duodaa.com/?qa=1231
http://duodaa.com/?qa=1232
http://duodaa.com/?qa=1233
http://duodaa.com/?qa=1234
http://duodaa.com/?qa=1235
http://duodaa.com/?qa=1236
http://duodaa.com/?qa=1237
http://duodaa.com/?qa=1238
http://duodaa.com/?qa=1239
http://duodaa.com/?qa=1240
http://duodaa.com/?qa=1241
http://duodaa.com/?qa=1242
http://duodaa.com/?qa=1243
http://duodaa.com/?qa=1244
http://duodaa.com/?qa=1245
http://duodaa.com/?qa=1246
http://duodaa.com/?qa=1247
http://duodaa.com/?qa=1248
http://duodaa.com/?qa=1249
http://duodaa.com/?qa=1250
http://duodaa.com/?qa=1251
http://duodaa.com/?qa=1252
http://duodaa.com/?qa=1253
http://duodaa.com/?qa=1254
http://duodaa.com/?qa=1255
http://duodaa.com/?qa=1256
http://duodaa.com/?qa=1257
http://duodaa.com/?qa=1258
http://duodaa.com/?qa=1259
http://duodaa.com/?qa=1260
http://duodaa.com/?qa=1261
http://duodaa.com/?qa=1262
http://duodaa.com/?qa=1263
http://duodaa.com/?qa=1264
http://duodaa.com/?qa=1265
http://duodaa.com/?qa=1266
http://duodaa.com/?qa=1267
http://duodaa.com/?qa=1268
http://duodaa.com/?qa=1269
http://duodaa.com/?qa=1270
http://duodaa.com/?qa=1271
http://duodaa.com/?qa=1272
http://duodaa.com/?qa=1273
http://duodaa.com/?qa=1274
http://duodaa.com/?qa=1275
http://duodaa.com/?qa=1276
http://duodaa.com/?qa=1277
http://duodaa.com/?qa=1278
http://duodaa.com/?qa=1279
http://duodaa.com/?qa=1280
http://duodaa.com/?qa=1281
http://duodaa.com/?qa=1282
http://duodaa.com/?qa=1283
http://duodaa.com/?qa=1284
http://duodaa.com/?qa=1285
http://duodaa.com/?qa=1286
http://duodaa.com/?qa=1287
http://duodaa.com/?qa=1288
http://duodaa.com/?qa=1289
http://duodaa.com/?qa=1290
http://duodaa.com/?qa=1291
http://duodaa.com/?qa=1292
http://duodaa.com/?qa=1293
http://duodaa.com/?qa=1294
http://duodaa.com/?qa=1295
http://duodaa.com/?qa=1296
http://duodaa.com/?qa=1297
http://duodaa.com/?qa=1298
http://duodaa.com/?qa=1299
http://duodaa.com/?qa=1300
http://duodaa.com/?qa=1301
http://duodaa.com/?qa=1302
http://duodaa.com/?qa=1303
http://duodaa.com/?qa=1304
http://duodaa.com/?qa=1305
http://duodaa.com/?qa=1306
http://duodaa.com/?qa=1307
http://duodaa.com/?qa=1308
http://duodaa.com/?qa=1309
http://duodaa.com/?qa=1310
http://duodaa.com/?qa=1311
http://duodaa.com/?qa=1312
http://duodaa.com/?qa=1313
http://duodaa.com/?qa=1314
http://duodaa.com/?qa=1315
http://duodaa.com/?qa=1316
http://duodaa.com/?qa=1317
http://duodaa.com/?qa=1318
http://duodaa.com/?qa=1319
http://duodaa.com/?qa=1320
http://duodaa.com/?qa=1321
http://duodaa.com/?qa=1322
http://duodaa.com/?qa=1323
http://duodaa.com/?qa=1324
http://duodaa.com/?qa=1325
http://duodaa.com/?qa=1326
http://duodaa.com/?qa=1327
http://duodaa.com/?qa=1328
http://duodaa.com/?qa=1329
http://duodaa.com/?qa=1330
http://duodaa.com/?qa=1331
http://duodaa.com/?qa=1332
http://duodaa.com/?qa=1333
http://duodaa.com/?qa=1334
http://duodaa.com/?qa=1335
http://duodaa.com/?qa=1336
http://duodaa.com/?qa=1337
http://duodaa.com/?qa=1338
http://duodaa.com/?qa=1339
http://duodaa.com/?qa=1340
http://duodaa.com/?qa=1341
http://duodaa.com/?qa=1342
http://duodaa.com/?qa=1343
http://duodaa.com/?qa=1344
http://duodaa.com/?qa=1345
http://duodaa.com/?qa=1346
http://duodaa.com/?qa=1347
http://duodaa.com/?qa=1348
http://duodaa.com/?qa=1349
http://duodaa.com/?qa=1350
http://duodaa.com/?qa=1351
http://duodaa.com/?qa=1352
http://duodaa.com/?qa=1353
http://duodaa.com/?qa=1354
http://duodaa.com/?qa=1355
http://duodaa.com/?qa=1356
http://duodaa.com/?qa=1357
http://duodaa.com/?qa=1358
http://duodaa.com/?qa=1359
http://duodaa.com/?qa=1360
http://duodaa.com/?qa=1361
http://duodaa.com/?qa=1362
http://duodaa.com/?qa=1363
http://duodaa.com/?qa=1364
http://duodaa.com/?qa=1365
http://duodaa.com/?qa=1366
http://duodaa.com/?qa=1367
http://duodaa.com/?qa=1368
http://duodaa.com/?qa=1369
http://duodaa.com/?qa=1370
http://duodaa.com/?qa=1371
http://duodaa.com/?qa=1372
http://duodaa.com/?qa=1373
http://duodaa.com/?qa=1374
http://duodaa.com/?qa=1375
http://duodaa.com/?qa=1376
http://duodaa.com/?qa=1377
http://duodaa.com/?qa=1378
http://duodaa.com/?qa=1379
http://duodaa.com/?qa=1380
http://duodaa.com/?qa=1381
http://duodaa.com/?qa=1382
http://duodaa.com/?qa=1383
http://duodaa.com/?qa=1384
http://duodaa.com/?qa=1385
http://duodaa.com/?qa=1386
http://duodaa.com/?qa=1387
http://duodaa.com/?qa=1388
http://duodaa.com/?qa=1389
http://duodaa.com/?qa=1390
http://duodaa.com/?qa=1391
http://duodaa.com/?qa=1392
http://duodaa.com/?qa=1393
http://duodaa.com/?qa=1394
http://duodaa.com/?qa=1395
http://duodaa.com/?qa=1396
http://duodaa.com/?qa=1397
http://duodaa.com/?qa=1398
http://duodaa.com/?qa=1399
http://duodaa.com/?qa=1400
http://duodaa.com/?qa=1401
http://duodaa.com/?qa=1402
http://duodaa.com/?qa=1403
http://duodaa.com/?qa=1404
http://duodaa.com/?qa=1405
http://duodaa.com/?qa=1406
http://duodaa.com/?qa=1407
http://duodaa.com/?qa=1408
http://duodaa.com/?qa=1409
http://duodaa.com/?qa=1410
http://duodaa.com/?qa=1411
http://duodaa.com/?qa=1412
http://duodaa.com/?qa=1413
http://duodaa.com/?qa=1414
http://duodaa.com/?qa=1415
http://duodaa.com/?qa=1416
http://duodaa.com/?qa=1417
http://duodaa.com/?qa=1418
http://duodaa.com/?qa=1419
http://duodaa.com/?qa=1420
http://duodaa.com/?qa=1421
http://duodaa.com/?qa=1422
http://duodaa.com/?qa=1423
http://duodaa.com/?qa=1424
http://duodaa.com/?qa=1425
http://duodaa.com/?qa=1426
http://duodaa.com/?qa=1427
http://duodaa.com/?qa=1428
http://duodaa.com/?qa=1429
http://duodaa.com/?qa=1430
http://duodaa.com/?qa=1431
http://duodaa.com/?qa=1432
http://duodaa.com/?qa=1433
http://duodaa.com/?qa=1434
http://duodaa.com/?qa=1435
http://duodaa.com/?qa=1436
http://duodaa.com/?qa=1437
http://duodaa.com/?qa=1438
http://duodaa.com/?qa=1439
http://duodaa.com/?qa=1440
http://duodaa.com/?qa=1441
http://duodaa.com/?qa=1442
http://duodaa.com/?qa=1443
http://duodaa.com/?qa=1444
http://duodaa.com/?qa=1445
http://duodaa.com/?qa=1446
http://duodaa.com/?qa=1447
http://duodaa.com/?qa=1448
http://duodaa.com/?qa=1449
http://duodaa.com/?qa=1450
http://duodaa.com/?qa=1451
http://duodaa.com/?qa=1452
http://duodaa.com/?qa=1453
http://duodaa.com/?qa=1454
http://duodaa.com/?qa=1455
http://duodaa.com/?qa=1456
http://duodaa.com/?qa=1457
http://duodaa.com/?qa=1458
http://duodaa.com/?qa=1459
http://duodaa.com/?qa=1460
http://duodaa.com/?qa=1461
http://duodaa.com/?qa=1462
http://duodaa.com/?qa=1463
http://duodaa.com/?qa=1464
http://duodaa.com/?qa=1465
http://duodaa.com/?qa=1466
http://duodaa.com/?qa=1467
http://duodaa.com/?qa=1468
http://duodaa.com/?qa=1469
http://duodaa.com/?qa=1470
http://duodaa.com/?qa=1471
http://duodaa.com/?qa=1472
http://duodaa.com/?qa=1473
http://duodaa.com/?qa=1474
http://duodaa.com/?qa=1475
http://duodaa.com/?qa=1476
http://duodaa.com/?qa=1477
http://duodaa.com/?qa=1478
http://duodaa.com/?qa=1479
http://duodaa.com/?qa=1480
http://duodaa.com/?qa=1481
http://duodaa.com/?qa=1482
http://duodaa.com/?qa=1483
http://duodaa.com/?qa=1484
http://duodaa.com/?qa=1485
http://duodaa.com/?qa=1486
http://duodaa.com/?qa=1487
http://duodaa.com/?qa=1488
http://duodaa.com/?qa=1489
http://duodaa.com/?qa=1490
http://duodaa.com/?qa=1491
http://duodaa.com/?qa=1492
http://duodaa.com/?qa=1493
http://duodaa.com/?qa=1494
http://duodaa.com/?qa=1495
http://duodaa.com/?qa=1496
http://duodaa.com/?qa=1497
http://duodaa.com/?qa=1498
http://duodaa.com/?qa=1499
http://duodaa.com/?qa=1500
http://duodaa.com/?qa=1501
http://duodaa.com/?qa=1502
http://duodaa.com/?qa=1503
http://duodaa.com/?qa=1504
http://duodaa.com/?qa=1505
http://duodaa.com/?qa=1506
http://duodaa.com/?qa=1507
http://duodaa.com/?qa=1508
http://duodaa.com/?qa=1509
http://duodaa.com/?qa=1510
http://duodaa.com/?qa=1511
http://duodaa.com/?qa=1512
http://duodaa.com/?qa=1513
http://duodaa.com/?qa=1514
http://duodaa.com/?qa=1515
http://duodaa.com/?qa=1516
http://duodaa.com/?qa=1517
http://duodaa.com/?qa=1518
http://duodaa.com/?qa=1519
http://duodaa.com/?qa=1520
http://duodaa.com/?qa=1521
http://duodaa.com/?qa=1522
http://duodaa.com/?qa=1523
http://duodaa.com/?qa=1524
http://duodaa.com/?qa=1525
http://duodaa.com/?qa=1526
http://duodaa.com/?qa=1527
http://duodaa.com/?qa=1528
http://duodaa.com/?qa=1529
http://duodaa.com/?qa=1530
http://duodaa.com/?qa=1531
http://duodaa.com/?qa=1532
http://duodaa.com/?qa=1533
http://duodaa.com/?qa=1534
http://duodaa.com/?qa=1535
http://duodaa.com/?qa=1536
http://duodaa.com/?qa=1537
http://duodaa.com/?qa=1538
http://duodaa.com/?qa=1539
http://duodaa.com/?qa=1540
http://duodaa.com/?qa=1541
http://duodaa.com/?qa=1542
http://duodaa.com/?qa=1543
http://duodaa.com/?qa=1544
http://duodaa.com/?qa=1545
http://duodaa.com/?qa=1546
http://duodaa.com/?qa=1547
http://duodaa.com/?qa=1548
http://duodaa.com/?qa=1549
http://duodaa.com/?qa=1550
http://duodaa.com/?qa=1551
http://duodaa.com/?qa=1552
http://duodaa.com/?qa=1553
http://duodaa.com/?qa=1554
http://duodaa.com/?qa=1555
http://duodaa.com/?qa=1556
http://duodaa.com/?qa=1557
http://duodaa.com/?qa=1558
http://duodaa.com/?qa=1559
http://duodaa.com/?qa=1560
http://duodaa.com/?qa=1561
http://duodaa.com/?qa=1562
http://duodaa.com/?qa=1563
http://duodaa.com/?qa=1564
http://duodaa.com/?qa=1565
http://duodaa.com/?qa=1566
http://duodaa.com/?qa=1567
http://duodaa.com/?qa=1568
http://duodaa.com/?qa=1569
http://duodaa.com/?qa=1570
http://duodaa.com/?qa=1571
http://duodaa.com/?qa=1572
http://duodaa.com/?qa=1573
http://duodaa.com/?qa=1574
http://duodaa.com/?qa=1575
http://duodaa.com/?qa=1576
http://duodaa.com/?qa=1577
http://duodaa.com/?qa=1578
http://duodaa.com/?qa=1579
http://duodaa.com/?qa=1580
http://duodaa.com/?qa=1581
http://duodaa.com/?qa=1582
http://duodaa.com/?qa=1583
http://duodaa.com/?qa=1584
http://duodaa.com/?qa=1585
http://duodaa.com/?qa=1586
http://duodaa.com/?qa=1587
http://duodaa.com/?qa=1588
http://duodaa.com/?qa=1589
http://duodaa.com/?qa=1590
http://duodaa.com/?qa=1591
http://duodaa.com/?qa=1592
http://duodaa.com/?qa=1593
http://duodaa.com/?qa=1594
http://duodaa.com/?qa=1595
http://duodaa.com/?qa=1596
http://duodaa.com/?qa=1597
http://duodaa.com/?qa=1598
http://duodaa.com/?qa=1599
http://duodaa.com/?qa=1600
http://duodaa.com/?qa=1601
http://duodaa.com/?qa=1602
http://duodaa.com/?qa=1603
http://duodaa.com/?qa=1604
http://duodaa.com/?qa=1605
http://duodaa.com/?qa=1606
http://duodaa.com/?qa=1607
http://duodaa.com/?qa=1608
http://duodaa.com/?qa=1609
http://duodaa.com/?qa=1610
http://duodaa.com/?qa=1611
http://duodaa.com/?qa=1612
http://duodaa.com/?qa=1613
http://duodaa.com/?qa=1614
http://duodaa.com/?qa=1615
http://duodaa.com/?qa=1616
http://duodaa.com/?qa=1617
http://duodaa.com/?qa=1618
http://duodaa.com/?qa=1619
http://duodaa.com/?qa=1620
http://duodaa.com/?qa=1621
http://duodaa.com/?qa=1622
http://duodaa.com/?qa=1623
http://duodaa.com/?qa=1624
http://duodaa.com/?qa=1625
http://duodaa.com/?qa=1626
http://duodaa.com/?qa=1627
http://duodaa.com/?qa=1628
http://duodaa.com/?qa=1629
http://duodaa.com/?qa=1630
http://duodaa.com/?qa=1631
http://duodaa.com/?qa=1632
http://duodaa.com/?qa=1633
http://duodaa.com/?qa=1634
http://duodaa.com/?qa=1635
http://duodaa.com/?qa=1636
http://duodaa.com/?qa=1637
http://duodaa.com/?qa=1638
http://duodaa.com/?qa=1639
http://duodaa.com/?qa=1640
http://duodaa.com/?qa=1641
http://duodaa.com/?qa=1642
http://duodaa.com/?qa=1643
http://duodaa.com/?qa=1644
http://duodaa.com/?qa=1645
http://duodaa.com/?qa=1646
http://duodaa.com/?qa=1647
http://duodaa.com/?qa=1648
http://duodaa.com/?qa=1649
http://duodaa.com/?qa=1650
http://duodaa.com/?qa=1651
http://duodaa.com/?qa=1652
http://duodaa.com/?qa=1653
http://duodaa.com/?qa=1654
http://duodaa.com/?qa=1655
http://duodaa.com/?qa=1656
http://duodaa.com/?qa=1657
http://duodaa.com/?qa=1658
http://duodaa.com/?qa=1659
http://duodaa.com/?qa=1660
http://duodaa.com/?qa=1661
http://duodaa.com/?qa=1662
http://duodaa.com/?qa=1663
http://duodaa.com/?qa=1664
http://duodaa.com/?qa=1665
http://duodaa.com/?qa=1666
http://duodaa.com/?qa=1667
http://duodaa.com/?qa=1668
http://duodaa.com/?qa=1669
http://duodaa.com/?qa=1670
http://duodaa.com/?qa=1671
http://duodaa.com/?qa=1672
http://duodaa.com/?qa=1673
http://duodaa.com/?qa=1674
http://duodaa.com/?qa=1675
http://duodaa.com/?qa=1676
http://duodaa.com/?qa=1677
http://duodaa.com/?qa=1678
http://duodaa.com/?qa=1679
http://duodaa.com/?qa=1680
http://duodaa.com/?qa=1681
http://duodaa.com/?qa=1682
http://duodaa.com/?qa=1683
http://duodaa.com/?qa=1684
http://duodaa.com/?qa=1685
http://duodaa.com/?qa=1686
http://duodaa.com/?qa=1687
http://duodaa.com/?qa=1688
http://duodaa.com/?qa=1689
http://duodaa.com/?qa=1690
http://duodaa.com/?qa=1691
http://duodaa.com/?qa=1692
http://duodaa.com/?qa=1693
http://duodaa.com/?qa=1694
http://duodaa.com/?qa=1695
http://duodaa.com/?qa=1696
http://duodaa.com/?qa=1697
http://duodaa.com/?qa=1698
http://duodaa.com/?qa=1699
http://duodaa.com/?qa=1700
http://duodaa.com/?qa=1701
http://duodaa.com/?qa=1702
http://duodaa.com/?qa=1703
http://duodaa.com/?qa=1704
http://duodaa.com/?qa=1705
http://duodaa.com/?qa=1706
http://duodaa.com/?qa=1707
http://duodaa.com/?qa=1708
http://duodaa.com/?qa=1709
http://duodaa.com/?qa=1710
http://duodaa.com/?qa=1711
http://duodaa.com/?qa=1712
http://duodaa.com/?qa=1713
http://duodaa.com/?qa=1714
http://duodaa.com/?qa=1715
http://duodaa.com/?qa=1716
http://duodaa.com/?qa=1717
http://duodaa.com/?qa=1718
http://duodaa.com/?qa=1719
http://duodaa.com/?qa=1720
http://duodaa.com/?qa=1721
http://duodaa.com/?qa=1722
http://duodaa.com/?qa=1723
http://duodaa.com/?qa=1724
http://duodaa.com/?qa=1725
http://duodaa.com/?qa=1726
http://duodaa.com/?qa=1727
http://duodaa.com/?qa=1728
http://duodaa.com/?qa=1729
http://duodaa.com/?qa=1730
http://duodaa.com/?qa=1731
http://duodaa.com/?qa=1732
http://duodaa.com/?qa=1733
http://duodaa.com/?qa=1734
http://duodaa.com/?qa=1735
http://duodaa.com/?qa=1736
http://duodaa.com/?qa=1737
http://duodaa.com/?qa=1738
http://duodaa.com/?qa=1739
http://duodaa.com/?qa=1740
http://duodaa.com/?qa=1741
http://duodaa.com/?qa=1742
http://duodaa.com/?qa=1743
http://duodaa.com/?qa=1744
http://duodaa.com/?qa=1745
http://duodaa.com/?qa=1746
http://duodaa.com/?qa=1747
http://duodaa.com/?qa=1748
http://duodaa.com/?qa=1749
http://duodaa.com/?qa=1750
http://duodaa.com/?qa=1751
http://duodaa.com/?qa=1752
http://duodaa.com/?qa=1753
http://duodaa.com/?qa=1754
http://duodaa.com/?qa=1755
http://duodaa.com/?qa=1756
http://duodaa.com/?qa=1757
http://duodaa.com/?qa=1758
http://duodaa.com/?qa=1759
http://duodaa.com/?qa=1760
http://duodaa.com/?qa=1761
http://duodaa.com/?qa=1762
http://duodaa.com/?qa=1763
http://duodaa.com/?qa=1764
http://duodaa.com/?qa=1765
http://duodaa.com/?qa=1766
http://duodaa.com/?qa=1767
http://duodaa.com/?qa=1768
http://duodaa.com/?qa=1769
http://duodaa.com/?qa=1770
http://duodaa.com/?qa=1771
http://duodaa.com/?qa=1772
http://duodaa.com/?qa=1773
http://duodaa.com/?qa=1774
http://duodaa.com/?qa=1775
http://duodaa.com/?qa=1776
http://duodaa.com/?qa=1777
http://duodaa.com/?qa=1778
http://duodaa.com/?qa=1779
http://duodaa.com/?qa=1780
http://duodaa.com/?qa=1781
http://duodaa.com/?qa=1782
http://duodaa.com/?qa=1783
http://duodaa.com/?qa=1784
http://duodaa.com/?qa=1785
http://duodaa.com/?qa=1786
http://duodaa.com/?qa=1787
http://duodaa.com/?qa=1788
http://duodaa.com/?qa=1789
http://duodaa.com/?qa=1790
http://duodaa.com/?qa=1791
http://duodaa.com/?qa=1792
http://duodaa.com/?qa=1793
http://duodaa.com/?qa=1794
http://duodaa.com/?qa=1795
http://duodaa.com/?qa=1796
http://duodaa.com/?qa=1797
http://duodaa.com/?qa=1798
http://duodaa.com/?qa=1799
http://duodaa.com/?qa=1800
http://duodaa.com/?qa=1801
http://duodaa.com/?qa=1802
http://duodaa.com/?qa=1803
http://duodaa.com/?qa=1804
http://duodaa.com/?qa=1805
http://duodaa.com/?qa=1806
http://duodaa.com/?qa=1807
http://duodaa.com/?qa=1808
http://duodaa.com/?qa=1809
http://duodaa.com/?qa=1810
http://duodaa.com/?qa=1811
http://duodaa.com/?qa=1812
http://duodaa.com/?qa=1813
http://duodaa.com/?qa=1814
http://duodaa.com/?qa=1815
http://duodaa.com/?qa=1816
http://duodaa.com/?qa=1817
http://duodaa.com/?qa=1818
http://duodaa.com/?qa=1819
http://duodaa.com/?qa=1820
http://duodaa.com/?qa=1821
http://duodaa.com/?qa=1822
http://duodaa.com/?qa=1823
http://duodaa.com/?qa=1824
http://duodaa.com/?qa=1825
http://duodaa.com/?qa=1826
http://duodaa.com/?qa=1827
http://duodaa.com/?qa=1828
http://duodaa.com/?qa=1829
http://duodaa.com/?qa=1830
http://duodaa.com/?qa=1831
http://duodaa.com/?qa=1832
http://duodaa.com/?qa=1833
http://duodaa.com/?qa=1834
http://duodaa.com/?qa=1835
http://duodaa.com/?qa=1836
http://duodaa.com/?qa=1837
http://duodaa.com/?qa=1838
http://duodaa.com/?qa=1839
http://duodaa.com/?qa=1840
http://duodaa.com/?qa=1841
http://duodaa.com/?qa=1842
http://duodaa.com/?qa=1843
http://duodaa.com/?qa=1844
http://duodaa.com/?qa=1845
http://duodaa.com/?qa=1846
http://duodaa.com/?qa=1847
http://duodaa.com/?qa=1848
http://duodaa.com/?qa=1849
http://duodaa.com/?qa=1850
http://duodaa.com/?qa=1851
http://duodaa.com/?qa=1852
http://duodaa.com/?qa=1853
http://duodaa.com/?qa=1854
http://duodaa.com/?qa=1855
http://duodaa.com/?qa=1856
http://duodaa.com/?qa=1857
http://duodaa.com/?qa=1858
http://duodaa.com/?qa=1859
http://duodaa.com/?qa=1860
http://duodaa.com/?qa=1861
http://duodaa.com/?qa=1862
http://duodaa.com/?qa=1863
http://duodaa.com/?qa=1864
http://duodaa.com/?qa=1865
http://duodaa.com/?qa=1866
http://duodaa.com/?qa=1867
http://duodaa.com/?qa=1868
http://duodaa.com/?qa=1869
http://duodaa.com/?qa=1870
http://duodaa.com/?qa=1871
http://duodaa.com/?qa=1872
http://duodaa.com/?qa=1873
http://duodaa.com/?qa=1874
http://duodaa.com/?qa=1875
http://duodaa.com/?qa=1876
http://duodaa.com/?qa=1877
http://duodaa.com/?qa=1878
http://duodaa.com/?qa=1879
http://duodaa.com/?qa=1880
http://duodaa.com/?qa=1881
http://duodaa.com/?qa=1882
http://duodaa.com/?qa=1883
http://duodaa.com/?qa=1884
http://duodaa.com/?qa=1885
http://duodaa.com/?qa=1886
http://duodaa.com/?qa=1887
http://duodaa.com/?qa=1888
http://duodaa.com/?qa=1889
http://duodaa.com/?qa=1890
http://duodaa.com/?qa=1891
http://duodaa.com/?qa=1892
http://duodaa.com/?qa=1893
http://duodaa.com/?qa=1894
http://duodaa.com/?qa=1895
http://duodaa.com/?qa=1896
http://duodaa.com/?qa=1897
http://duodaa.com/?qa=1898
http://duodaa.com/?qa=1899
http://duodaa.com/?qa=1900
http://duodaa.com/?qa=1901
http://duodaa.com/?qa=1902
http://duodaa.com/?qa=1903
http://duodaa.com/?qa=1904
http://duodaa.com/?qa=1905
http://duodaa.com/?qa=1906
http://duodaa.com/?qa=1907
http://duodaa.com/?qa=1908
http://duodaa.com/?qa=1909
http://duodaa.com/?qa=1910
http://duodaa.com/?qa=1911
http://duodaa.com/?qa=1912
http://duodaa.com/?qa=1913
http://duodaa.com/?qa=1914
http://duodaa.com/?qa=1915
http://duodaa.com/?qa=1916
http://duodaa.com/?qa=1917
http://duodaa.com/?qa=1918
http://duodaa.com/?qa=1919
http://duodaa.com/?qa=1920
http://duodaa.com/?qa=1921
http://duodaa.com/?qa=1922
http://duodaa.com/?qa=1923
http://duodaa.com/?qa=1924
http://duodaa.com/?qa=1925
http://duodaa.com/?qa=1926
http://duodaa.com/?qa=1927
http://duodaa.com/?qa=1928
http://duodaa.com/?qa=1929
http://duodaa.com/?qa=1930
http://duodaa.com/?qa=1931
http://duodaa.com/?qa=1932
http://duodaa.com/?qa=1933
http://duodaa.com/?qa=1934
http://duodaa.com/?qa=1935
http://duodaa.com/?qa=1936
http://duodaa.com/?qa=1937
http://duodaa.com/?qa=1938
http://duodaa.com/?qa=1939
http://duodaa.com/?qa=1940
http://duodaa.com/?qa=1941
http://duodaa.com/?qa=1942
http://duodaa.com/?qa=1943
http://duodaa.com/?qa=1944
http://duodaa.com/?qa=1945
http://duodaa.com/?qa=1946
http://duodaa.com/?qa=1947
http://duodaa.com/?qa=1948
http://duodaa.com/?qa=1949
http://duodaa.com/?qa=1950
http://duodaa.com/?qa=1951
http://duodaa.com/?qa=1952
http://duodaa.com/?qa=1953
http://duodaa.com/?qa=1954
http://duodaa.com/?qa=1955
http://duodaa.com/?qa=1956
http://duodaa.com/?qa=1957
http://duodaa.com/?qa=1958
http://duodaa.com/?qa=1959
http://duodaa.com/?qa=1960
http://duodaa.com/?qa=1961
http://duodaa.com/?qa=1962
http://duodaa.com/?qa=1963
http://duodaa.com/?qa=1964
http://duodaa.com/?qa=1965
http://duodaa.com/?qa=1966
http://duodaa.com/?qa=1967
http://duodaa.com/?qa=1968
http://duodaa.com/?qa=1969
http://duodaa.com/?qa=1970
http://duodaa.com/?qa=1971
http://duodaa.com/?qa=1972
http://duodaa.com/?qa=1973
http://duodaa.com/?qa=1974
http://duodaa.com/?qa=1975
http://duodaa.com/?qa=1976
http://duodaa.com/?qa=1977
http://duodaa.com/?qa=1978
http://duodaa.com/?qa=1979
http://duodaa.com/?qa=1980
http://duodaa.com/?qa=1981
http://duodaa.com/?qa=1982
http://duodaa.com/?qa=1983
http://duodaa.com/?qa=1984
http://duodaa.com/?qa=1985
http://duodaa.com/?qa=1986
http://duodaa.com/?qa=1987
http://duodaa.com/?qa=1988
http://duodaa.com/?qa=1989
http://duodaa.com/?qa=1990
http://duodaa.com/?qa=1991
http://duodaa.com/?qa=1992
http://duodaa.com/?qa=1993
http://duodaa.com/?qa=1994
http://duodaa.com/?qa=1995
http://duodaa.com/?qa=1996
http://duodaa.com/?qa=1997
http://duodaa.com/?qa=1998
http://duodaa.com/?qa=1999
http://duodaa.com/?qa=2000
http://duodaa.com/?qa=2001
http://duodaa.com/?qa=2002
http://duodaa.com/?qa=2003
http://duodaa.com/?qa=2004
http://duodaa.com/?qa=2005
http://duodaa.com/?qa=2006
http://duodaa.com/?qa=2007
http://duodaa.com/?qa=2008
http://duodaa.com/?qa=2009
http://duodaa.com/?qa=2010
http://duodaa.com/?qa=2011
http://duodaa.com/?qa=2012
http://duodaa.com/?qa=2013
http://duodaa.com/?qa=2014
http://duodaa.com/?qa=2015
http://duodaa.com/?qa=2016
http://duodaa.com/?qa=2017
http://duodaa.com/?qa=2018
http://duodaa.com/?qa=2019
http://duodaa.com/?qa=2020
http://duodaa.com/?qa=2021
http://duodaa.com/?qa=2022
http://duodaa.com/?qa=2023
http://duodaa.com/?qa=2024
http://duodaa.com/?qa=2025
http://duodaa.com/?qa=2026
http://duodaa.com/?qa=2027
http://duodaa.com/?qa=2028
http://duodaa.com/?qa=2029
http://duodaa.com/?qa=2030
http://duodaa.com/?qa=2031
http://duodaa.com/?qa=2032
http://duodaa.com/?qa=2033
http://duodaa.com/?qa=2034
http://duodaa.com/?qa=2035
http://duodaa.com/?qa=2036
http://duodaa.com/?qa=2037
http://duodaa.com/?qa=2038
http://duodaa.com/?qa=2039
http://duodaa.com/?qa=2040
http://duodaa.com/?qa=2041
http://duodaa.com/?qa=2042
http://duodaa.com/?qa=2043
http://duodaa.com/?qa=2044
http://duodaa.com/?qa=2045
http://duodaa.com/?qa=2046
http://duodaa.com/?qa=2047
http://duodaa.com/?qa=2048
http://duodaa.com/?qa=2049
http://duodaa.com/?qa=2050
http://duodaa.com/?qa=2051
http://duodaa.com/?qa=2052
http://duodaa.com/?qa=2053
http://duodaa.com/?qa=2054
http://duodaa.com/?qa=2055
http://duodaa.com/?qa=2056
http://duodaa.com/?qa=2057
http://duodaa.com/?qa=2058
http://duodaa.com/?qa=2059
http://duodaa.com/?qa=2060
http://duodaa.com/?qa=2061
http://duodaa.com/?qa=2062
http://duodaa.com/?qa=2063
http://duodaa.com/?qa=2064
http://duodaa.com/?qa=2065
http://duodaa.com/?qa=2066
http://duodaa.com/?qa=2067
http://duodaa.com/?qa=2068
http://duodaa.com/?qa=2069
http://duodaa.com/?qa=2070
http://duodaa.com/?qa=2071
http://duodaa.com/?qa=2072
http://duodaa.com/?qa=2073
http://duodaa.com/?qa=2074
http://duodaa.com/?qa=2075
http://duodaa.com/?qa=2076
http://duodaa.com/?qa=2077
http://duodaa.com/?qa=2078
http://duodaa.com/?qa=2079
http://duodaa.com/?qa=2080
http://duodaa.com/?qa=2081
http://duodaa.com/?qa=2082
http://duodaa.com/?qa=2083
http://duodaa.com/?qa=2084
http://duodaa.com/?qa=2085
http://duodaa.com/?qa=2086
http://duodaa.com/?qa=2087
http://duodaa.com/?qa=2088
http://duodaa.com/?qa=2089
http://duodaa.com/?qa=2090
http://duodaa.com/?qa=2091
http://duodaa.com/?qa=2092
http://duodaa.com/?qa=2093
http://duodaa.com/?qa=2094
http://duodaa.com/?qa=2095
http://duodaa.com/?qa=2096
http://duodaa.com/?qa=2097
http://duodaa.com/?qa=2098
http://duodaa.com/?qa=2099
http://duodaa.com/?qa=2100
http://duodaa.com/?qa=2101
http://duodaa.com/?qa=2102
http://duodaa.com/?qa=2103
http://duodaa.com/?qa=2104
http://duodaa.com/?qa=2105
http://duodaa.com/?qa=2106
http://duodaa.com/?qa=2107
http://duodaa.com/?qa=2108
http://duodaa.com/?qa=2109
http://duodaa.com/?qa=2110
http://duodaa.com/?qa=2111
http://duodaa.com/?qa=2112
http://duodaa.com/?qa=2113
http://duodaa.com/?qa=2114
http://duodaa.com/?qa=2115
http://duodaa.com/?qa=2116
http://duodaa.com/?qa=2117
http://duodaa.com/?qa=2118
http://duodaa.com/?qa=2119
http://duodaa.com/?qa=2120
http://duodaa.com/?qa=2121
http://duodaa.com/?qa=2122
http://duodaa.com/?qa=2123
http://duodaa.com/?qa=2124
http://duodaa.com/?qa=2125
http://duodaa.com/?qa=2126
http://duodaa.com/?qa=2127
http://duodaa.com/?qa=2128
http://duodaa.com/?qa=2129
http://duodaa.com/?qa=2130
http://duodaa.com/?qa=2131
http://duodaa.com/?qa=2132
http://duodaa.com/?qa=2133
http://duodaa.com/?qa=2134
http://duodaa.com/?qa=2135
http://duodaa.com/?qa=2136
http://duodaa.com/?qa=2137
http://duodaa.com/?qa=2138
http://duodaa.com/?qa=2139
http://duodaa.com/?qa=2140
http://duodaa.com/?qa=2141
http://duodaa.com/?qa=2142
http://duodaa.com/?qa=2143
http://duodaa.com/?qa=2144
http://duodaa.com/?qa=2145
http://duodaa.com/?qa=2146
http://duodaa.com/?qa=2147
http://duodaa.com/?qa=2148
http://duodaa.com/?qa=2149
http://duodaa.com/?qa=2150
http://duodaa.com/?qa=2151
http://duodaa.com/?qa=2152
http://duodaa.com/?qa=2153
http://duodaa.com/?qa=2154
http://duodaa.com/?qa=2155
http://duodaa.com/?qa=2156
http://duodaa.com/?qa=2157
http://duodaa.com/?qa=2158
http://duodaa.com/?qa=2159
http://duodaa.com/?qa=2160
http://duodaa.com/?qa=2161
http://duodaa.com/?qa=2162
http://duodaa.com/?qa=2163
http://duodaa.com/?qa=2164
http://duodaa.com/?qa=2165
http://duodaa.com/?qa=2166
http://duodaa.com/?qa=2167
http://duodaa.com/?qa=2168
http://duodaa.com/?qa=2169
http://duodaa.com/?qa=2170
http://duodaa.com/?qa=2171
http://duodaa.com/?qa=2172
http://duodaa.com/?qa=2173
http://duodaa.com/?qa=2174
http://duodaa.com/?qa=2175
http://duodaa.com/?qa=2176
http://duodaa.com/?qa=2177
http://duodaa.com/?qa=2178
http://duodaa.com/?qa=2179
http://duodaa.com/?qa=2180
http://duodaa.com/?qa=2181
http://duodaa.com/?qa=2182
http://duodaa.com/?qa=2183
http://duodaa.com/?qa=2184
http://duodaa.com/?qa=2185
http://duodaa.com/?qa=2186
http://duodaa.com/?qa=2187
http://duodaa.com/?qa=2188
http://duodaa.com/?qa=2189
http://duodaa.com/?qa=2190
http://duodaa.com/?qa=2191
http://duodaa.com/?qa=2192
http://duodaa.com/?qa=2193
http://duodaa.com/?qa=2194
http://duodaa.com/?qa=2195
http://duodaa.com/?qa=2196
http://duodaa.com/?qa=2197
http://duodaa.com/?qa=2198
http://duodaa.com/?qa=2199
http://duodaa.com/?qa=2200
http://duodaa.com/?qa=2201
http://duodaa.com/?qa=2202
http://duodaa.com/?qa=2203
http://duodaa.com/?qa=2204
http://duodaa.com/?qa=2205
http://duodaa.com/?qa=2206
http://duodaa.com/?qa=2207
http://duodaa.com/?qa=2208
http://duodaa.com/?qa=2209
http://duodaa.com/?qa=2210
http://duodaa.com/?qa=2211
http://duodaa.com/?qa=2212
http://duodaa.com/?qa=2213
http://duodaa.com/?qa=2214
http://duodaa.com/?qa=2215
http://duodaa.com/?qa=2216
http://duodaa.com/?qa=2217
http://duodaa.com/?qa=2218
http://duodaa.com/?qa=2219
http://duodaa.com/?qa=2220
http://duodaa.com/?qa=2221
http://duodaa.com/?qa=2222
http://duodaa.com/?qa=2223
http://duodaa.com/?qa=2224
http://duodaa.com/?qa=2225
http://duodaa.com/?qa=2226
http://duodaa.com/?qa=2227
http://duodaa.com/?qa=2228
http://duodaa.com/?qa=2229
http://duodaa.com/?qa=2230
http://duodaa.com/?qa=2231
http://duodaa.com/?qa=2232
http://duodaa.com/?qa=2233
http://duodaa.com/?qa=2234
http://duodaa.com/?qa=2235
http://duodaa.com/?qa=2236
http://duodaa.com/?qa=2237
http://duodaa.com/?qa=2238
http://duodaa.com/?qa=2239
http://duodaa.com/?qa=2240
http://duodaa.com/?qa=2241
http://duodaa.com/?qa=2242
http://duodaa.com/?qa=2243
http://duodaa.com/?qa=2244
http://duodaa.com/?qa=2245
http://duodaa.com/?qa=2246
http://duodaa.com/?qa=2247
http://duodaa.com/?qa=2248
http://duodaa.com/?qa=2249
http://duodaa.com/?qa=2250
http://duodaa.com/?qa=2251
http://duodaa.com/?qa=2252
http://duodaa.com/?qa=2253
http://duodaa.com/?qa=2254
http://duodaa.com/?qa=2255
http://duodaa.com/?qa=2256
http://duodaa.com/?qa=2257
http://duodaa.com/?qa=2258
http://duodaa.com/?qa=2259
http://duodaa.com/?qa=2260
http://duodaa.com/?qa=2261
http://duodaa.com/?qa=2262
http://duodaa.com/?qa=2263
http://duodaa.com/?qa=2264
http://duodaa.com/?qa=2265
http://duodaa.com/?qa=2266
http://duodaa.com/?qa=2267
http://duodaa.com/?qa=2268
http://duodaa.com/?qa=2269
http://duodaa.com/?qa=2270
http://duodaa.com/?qa=2271
http://duodaa.com/?qa=2272
http://duodaa.com/?qa=2273
http://duodaa.com/?qa=2274
http://duodaa.com/?qa=2275
http://duodaa.com/?qa=2276
http://duodaa.com/?qa=2277
http://duodaa.com/?qa=2278
http://duodaa.com/?qa=2279
http://duodaa.com/?qa=2280
http://duodaa.com/?qa=2281
http://duodaa.com/?qa=2282
http://duodaa.com/?qa=2283
http://duodaa.com/?qa=2284
http://duodaa.com/?qa=2285
http://duodaa.com/?qa=2286
http://duodaa.com/?qa=2287
http://duodaa.com/?qa=2288
http://duodaa.com/?qa=2289
http://duodaa.com/?qa=2290
http://duodaa.com/?qa=2291
http://duodaa.com/?qa=2292
http://duodaa.com/?qa=2293
http://duodaa.com/?qa=2294
http://duodaa.com/?qa=2295
http://duodaa.com/?qa=2296
http://duodaa.com/?qa=2297
http://duodaa.com/?qa=2298
http://duodaa.com/?qa=2299
http://duodaa.com/?qa=2300
http://duodaa.com/?qa=2301
http://duodaa.com/?qa=2302
http://duodaa.com/?qa=2303
http://duodaa.com/?qa=2304
http://duodaa.com/?qa=2305
http://duodaa.com/?qa=2306
http://duodaa.com/?qa=2307
http://duodaa.com/?qa=2308
http://duodaa.com/?qa=2309
http://duodaa.com/?qa=2310
http://duodaa.com/?qa=2311
http://duodaa.com/?qa=2312
http://duodaa.com/?qa=2313
http://duodaa.com/?qa=2314
http://duodaa.com/?qa=2315
http://duodaa.com/?qa=2316
http://duodaa.com/?qa=2317
http://duodaa.com/?qa=2318
http://duodaa.com/?qa=2319
http://duodaa.com/?qa=2320
http://duodaa.com/?qa=2321
http://duodaa.com/?qa=2322
http://duodaa.com/?qa=2323
http://duodaa.com/?qa=2324
http://duodaa.com/?qa=2325
http://duodaa.com/?qa=2326
http://duodaa.com/?qa=2327
http://duodaa.com/?qa=2328
http://duodaa.com/?qa=2329
http://duodaa.com/?qa=2330
http://duodaa.com/?qa=2331
http://duodaa.com/?qa=2332
http://duodaa.com/?qa=2333
http://duodaa.com/?qa=2334
http://duodaa.com/?qa=2335
http://duodaa.com/?qa=2336
http://duodaa.com/?qa=2337
http://duodaa.com/?qa=2338
http://duodaa.com/?qa=2339
http://duodaa.com/?qa=2340
http://duodaa.com/?qa=2341
http://duodaa.com/?qa=2342
http://duodaa.com/?qa=2343
http://duodaa.com/?qa=2344
http://duodaa.com/?qa=2345
http://duodaa.com/?qa=2346
http://duodaa.com/?qa=2347
http://duodaa.com/?qa=2348
http://duodaa.com/?qa=2349
